    1  ls
    2  clear
    3  ls
    4  sudo yum update -y
    5  sudo yum install -y docker
    6  sudo service docker start
    7  sudo usermod -a -G docker ec2-user
    8  docker info
    9  exit
   10  docker info
   11  touch Dockerfile
   12  vi
   13  rm Dockerfile
   14  exit
   15  ls
   16  cd ..
   17  ls
   18  cd ..
   19  ls
   20  cd
   21  ls
   22  exit
   23  ls
   24  rm -r node-osc-client
   25  ls
   26  exit
   27  ls
   28  cd node-osc-client
   29  ls
   30  cd web
   31  docker build -t node-osc .
   32  docker images
   33  docker run -p 80:80 --expose 5004 node-osc
   34  vi Dockerfile
   35  ls
   36  cat package-lock.json
   37  ls
   38  node server.js
   39  vi Dockerfile
   40  docker build -t node-osc .
   41  docker run -p 80:80 --expose 5004 node-osc
   42  ps -e
   43  kill all docker
   44  killall docker
   45  ls
   46  ps -e
   47  kill docker-containe
   48  killall docker-containe
   49  killall docker-container
   50  ps -e
   51  docker stop
   52  docker ls
   53  docker ps
   54  docker stop node-osc
   55  docker stop epic_kalam
   56  docker ps
   57  docker run -p 3000:80 --expose 5004 node-osc
   58  docker ps
   59  docker stop affectionate_brahmagupta
   60  docker run -p 3000:80 --expose 5004/udp node-osc
   61  docker ps
   62  docker-stop pedantic_almeida
   63  docker stop pedantic_almeida
   64  docker run -p 3000:80 --expose 5004/udp node-osc
   65  netstat -anp
   66  iptables
   67  iptables --help
   68  iptables --list
   69  sudo iptables --list
   70  docker ps
   71  sudo iptables -L
   72  docker ps
   73  docker stop blissful_snyder
   74  ls
   75  cd node-osc-client
   76  yum install tmux
   77  sudo yum install tmux
   78  tmux
   79  ps -e
   80  tmux attach
   81  sudo iptables -A INPUT -p tcp --dport 80 -m conntrack --ctstate NEW,ESTABLISHED -j ACCEPT
   82  sudo iptables -A OUTPUT -p tcp --sport 80 -m conntrack --ctstate ESTABLISHED -j ACCEPT.
   83  sudo iptables -A OUTPUT -p tcp --sport 80 -m conntrack --ctstate ESTABLISHED -j ACCEPT
   84  sudo iptables -L
   85  ls
   86  cd web
   87  ls
   88  cat server.js
   89  iptables 
   90  iptables  --list
   91  sudo iptables  --list
   92  exit
   93  docker ps
   94  netstat
   95  netstat | most
   96  netstat | less
   97  docker run -p 3000:80 --expose 5004/udp node-osc
   98  ps -e
   99  tmux attach
  100  docker run -p 3000:80 --expose 5004/udp node-osc
  101  ls
  102  ps -e
  103  docker run -p 3000:80 --expose 5004/udp node-osc
  104  ls 
  105  cd node-osc-client
  106  ls
  107  cd web
  108  ls
  109  cd server.js
  110  ls
  111  vi server.js
  112  exit
  113  ps -e
  114  ls
  115  cd node-osc-client
  116  ls
  117  cd web
  118  cat Dockerfile
  119  docker run -p 3000:80 --expose 5004/udp node-osc
  120  docker ps
  121  clear
  122  netstat -natp
  123  docker ps
  124  docker inspect ecstatic_fermi
  125  docker ps -a
  126  clear
  127  docker ps
  128  docker rm ecstatic_fermi
  129  docker stop ecstatic_fermi
  130  docker rm ecstatic_fermi
  131  docker run --net=host -p 3000:80 --expose 5004/udp node-osc
  132  ls
  133  vi Dockerfile 
  134  history | grep build
  135  40
  136  docker build -t node-osc . 
  137  docker run --net=host -p 3000:80 --expose 5004/udp node-osc
  138  vi test.js
  139  node test.js
  140  docker build -t node-osc . 
  141  vi Dockerfile
  142  docker build -t node-osc . 
  143  docker run --net=host -p 3000:80 --expose 5004/udp node-osc
  144  vi test.js
  145  docker build -t node-osc . 
  146  docker run --net=host -p 3000:80 --expose 5004/udp node-osc
  147  ls
  148  vi Dockerfile
  149  ls
  150  cd public
  151  ls
  152  vi index.html
  153  vi script.html
  154  vi script.js
  155  vi sketch.js
  156  docker build -t node-osc . 
  157  cd ..
  158  docker build -t node-osc . 
  159  docker run --net=host -p 3000:80 --expose 5004/udp node-osc
  160  exit
  161  netstat -natp
  162  netstat -nap
  163  netstat -naup
  164  netstat -natp 
  165  netstat -natp | most
  166  netstat -nap | less
  167  docker ps
  168  docker rm -f hungry_lamport 
  169  netstat -nap | less
  170  docker pd
  171  docker ps
  172  docker inspect ecstatic_beaver | less
  173  netstat -naup
  174  netstat -natp
  175  telnet 127.0.0.1
  176  telnet 127.0.0.1 8081
  177  apt-get install telnet
  178  apk add telnet
  179  uname
  180  uname -a
  181  apt
  182  apk
  183  sudo -- apt-get install telnet
  184  cat /etc/issue
  185  sudo yum install telnet
  186  telnet 127.0.0.1 8081
  187  telnet 127.0.0.1 3000
  188  docker ps
  189  which tcpdump
  190  sudo yum install -y
  191  sudo yum install -y tcpdump
  192  ifconfig -a
  193  sudo tcpdump -nni eth0 udp port 5004
  194  docker ps
  195  docker rm -f ecstatic_beaver
  196  ls
  197  cd node-osc-client
  198  ls
  199  cd web
  200  ls
  201  vi server.js
  202  docker rm -f ecstatic_beaver
  203  docker ps -e
  204  docker ps 
  205  docker rm -f pedantic_mccarthy 
  206  sudo tcpdump -nni eth0 udp port 5004
  207  docker rm -f pedantic_mccarthy 
  208  docker ps
  209  docker rm -f dazz
  210  docker rm -f 9a797
  211  netstat -naup
  212  history > history1.txt
